Untitled
…
Rows: 22 Columns: 3
── Column specification ────────────────────────────────────────────────────────
Delimiter: ","
chr (2): nuclear_commodity_description, category
dbl (1): commodity_code

ℹ Use `spec()` to retrieve the full column specification for this data.
ℹ Specify the column types or set `show_col_types = FALSE` to quiet this message.

# A tibble: 22 × 3
   commodity_code nuclear_commodity_description     category                    
            <dbl> <chr>                             <chr>                       
 1          2844. Radioactive elements and isotopes Unclear - perhaps ignore    
 2          8401. Fuel elements, non-irradiated     Fuel fabrication            
 3          8102. Tungsten articles                 Ignore - probably related t…
 4          8112. Beryllium                         Probably ignore             
 5          8112. Beryllium                         Probably ignore             
 6          8112. Beryllium                         Probably ignore             
 7          2844. Depleted uranium; thorium         Enrichment                  
 8          2844. Enriched uranium; plutonium       Enrichment                  
 9          2845. Heavy water                       Power Plant                 
10          2844. Irradiated fuel elements          Spent Fuel / HLW            
# ℹ 12 more rows
…
